[
    "Aggressive",
    "Alert",
    "Angry",
    "Arrogant",
    "Barbaric",
    "Bamboozled",
    "Battle hardened",
    "Bland",
    "Bewildered",
    "Bloody",
    "Bloodthirsty",
    "Calm",
    "Chubby",
    "Clumsy",
    "Crazy",
    "Eager",
    "Ferocious",
    "Fierce",
    "Filthy",
    "Flighty",
    "Flummoxed",
    "Frail",
    "Frantic",
    "Frenzied",
    "Frightened",
    "Graceful",
    "Genocidal",
    "Gory",
    "Homely",
    "Hysterical",
    "Lanky",
    "Large",
    "Lumbering",
    "Mad",
    "Mumbling",
    "Murderous",
    "Naughty",
    "Nervous",
    "Panicky",
    "Ranting",
    "Repulsive",
    "Scarred",
    "Sketchy",
    "Shifty",
    "Spiny",
    "Speedy",
    "Squinty",
    "Scrabbling",
    "Short",
    "Skinny",
    "Slow",
    "Speedy",
    "Tall",
    "Ugly",
    "Vicious",
    "Violent",
    "Wild Eyed",
    "Wild"
]
